<svg xmlns="http://www.w3.org/2000/svg" height="500" width="500">
	<circle fill="#2c2f33" cx="250" cy="250" r="75"/>
	<text x="250" y="250" style="fill:#fffcf2;font:italic bold 100px Georgia;text-anchor:middle;dominant-baseline:middle;">&#965;</text>
	<ellipse id="orbital" cx="250" cy="250" rx="125" ry="225" fill="none" stroke="#eb5e28" stroke-width="10px"/>
	<use href="#orbital" transform="rotate(60 250 250)" />
	<use href="#orbital" transform="rotate(-60 250 250)" />
</svg>
